Fars Package Functions
…
filename <- make_filename(2013)
basename(filename)
#> [1] "accident_2013.csv.bz2"

The fars_read function

The fars_read will use as input the filename string from make_filename.

read_data <- fars_read(filename)
#> Warning: `tbl_df()` was deprecated in dplyr 1.0.0.
#> Please use `tibble::as_tibble()` instead.
#> This warning is displayed once every 8 hours.
#> Call `lifecycle::last_lifecycle_warnings()` to see where this warning was generated.
read_data
#> # A tibble: 30,202 x 50
#>    STATE ST_CASE VE_TOTAL VE_FORMS PVH_INVL  PEDS PERNOTMVIT PERMVIT PERSONS
#>    <dbl>   <dbl>    <dbl>    <dbl>    <dbl> <dbl>      <dbl>   <dbl>   <dbl>
#>  1     1   10001        1        1        0     0          0       8       8
#>  2     1   10002        2        2        0     0          0       2       2
#>  3     1   10003        1        1        0     0          0       1       1
#>  4     1   10004        1        1        0     0          0       3       3
#>  5     1   10005        2        2        0     0          0       3       3
#>  6     1   10006        2        2        0     0          0       3       3
#>  7     1   10007        1        1        0     0          0       1       1
#>  8     1   10008        2        2        0     0          0       2       2
#>  9     1   10009        1        1        0     0          0       1       1
#> 10     1   10010        2        2        0     0          0       4       4
#> # ... with 30,192 more rows, and 41 more variables: COUNTY <dbl>, CITY <dbl>,
#> #   DAY <dbl>, MONTH <dbl>, YEAR <dbl>, DAY_WEEK <dbl>, HOUR <dbl>,
#> #   MINUTE <dbl>, NHS <dbl>, ROAD_FNC <dbl>, ROUTE <dbl>, TWAY_ID <chr>,
#> #   TWAY_ID2 <chr>, MILEPT <dbl>, LATITUDE <dbl>, LONGITUD <dbl>, SP_JUR <dbl>,
#> #   HARM_EV <dbl>, MAN_COLL <dbl>, RELJCT1 <dbl>, RELJCT2 <dbl>, TYP_INT <dbl>,
#> #   WRK_ZONE <dbl>, REL_ROAD <dbl>, LGT_COND <dbl>, WEATHER1 <dbl>,
#> #   WEATHER2 <dbl>, WEATHER <dbl>, SCH_BUS <dbl>, RAIL <chr>, ...

The fars_read_years function

This functions goes further and use the both functions (make_filename and fars_read) to generate a list.

fars_read_years(2013)
#> [1] "C:/Users/papas/AppData/Local/Temp/Rtmp44VOzF/Rinst17742ac1444e/fars/extdata/accident_2013.csv.bz2"
#> # A tibble: 30,202 x 50
#>    STATE ST_CASE VE_TOTAL VE_FORMS PVH_INVL  PEDS PERNOTMVIT PERMVIT PERSONS
#>    <dbl>   <dbl>    <dbl>    <dbl>    <dbl> <dbl>      <dbl>   <dbl>   <dbl>
#>  1     1   10001        1        1        0     0          0       8       8
#>  2     1   10002        2        2        0     0          0       2       2
#>  3     1   10003        1        1        0     0          0       1       1
#>  4     1   10004        1        1        0     0          0       3       3
#>  5     1   10005        2        2        0     0          0       3       3
#>  6     1   10006        2        2        0     0          0       3       3
#>  7     1   10007        1        1        0     0          0       1       1
#>  8     1   10008        2        2        0     0          0       2       2
#>  9     1   10009        1        1        0     0          0       1       1
#> 10     1   10010        2        2        0     0          0       4       4
#> # ... with 30,192 more rows, and 41 more variables: COUNTY <dbl>, CITY <dbl>,
#> #   DAY <dbl>, MONTH <dbl>, YEAR <dbl>, DAY_WEEK <dbl>, HOUR <dbl>,
#> #   MINUTE <dbl>, NHS <dbl>, ROAD_FNC <dbl>, ROUTE <dbl>, TWAY_ID <chr>,
#> #   TWAY_ID2 <chr>, MILEPT <dbl>, LATITUDE <dbl>, LONGITUD <dbl>, SP_JUR <dbl>,
#> #   HARM_EV <dbl>, MAN_COLL <dbl>, RELJCT1 <dbl>, RELJCT2 <dbl>, TYP_INT <dbl>,
#> #   WRK_ZONE <dbl>, REL_ROAD <dbl>, LGT_COND <dbl>, WEATHER1 <dbl>,
#> #   WEATHER2 <dbl>, WEATHER <dbl>, SCH_BUS <dbl>, RAIL <chr>, ...
#> [[1]]
#> # A tibble: 30,202 x 2
#>    MONTH  year
#>    <dbl> <dbl>
#>  1     1  2013
#>  2     1  2013
#>  3     1  2013
#>  4     1  2013
#>  5     1  2013
#>  6     1  2013
#>  7     1  2013
#>  8     1  2013
#>  9     1  2013
#> 10     1  2013
#> # ... with 30,192 more rows
…
